Decoder3x8_test.vcd
$date
	Wed Sep 22 19:58:36 2021
$end
$version
	Icarus Verilog
$end
$timescale
	1s
$end
$scope module Decoder3x8_test $end
$var wire 8 ! out [7:0] $end
$var reg 5 " counter [4:0] $end
$scope module circuit_under_test $end
$var wire 3 # i [2:0] $end
$var wire 8 $ d [7:0] $end
$upscope $end
$upscope $end
$enddefinitions $end
#0
$dumpvars
b1 $
b0 #
b0 "
b1 !
$end
#1
b10 !
b10 $
b1 #
b1 "
#2
b100 !
b100 $
b10 #
b10 "
#3
b1000 !
b1000 $
b11 #
b11 "
#4
b10000 !
b10000 $
b100 #
b100 "
#5
b100000 !
b100000 $
b101 #
b101 "
#6
b1000000 !
b1000000 $
b110 #
b110 "
#7
b10000000 !
b10000000 $
b111 #
b111 "
#8
b1 !
b1 $
b0 #
b1000 "
#9
b10 !
b10 $
b1 #
b1001 "
#10
b100 !
b100 $
b10 #
b1010 "
#11
b1000 !
b1000 $
b11 #
b1011 "
#12
b10000 !
b10000 $
b100 #
b1100 "
#13
b100000 !
b100000 $
b101 #
b1101 "
#14
b1000000 !
b1000000 $
b110 #
b1110 "
#15
b10000000 !
b10000000 $
b111 #
b1111 "
#16
b1 !
b1 $
b0 #
b10000 "
